list and detail available CARDdealr datasets — available_datasets • CARDdealr
…
#> 10 National Plan & Provider Enumeration System (NPPES) Oncology Provid… src_npp…
#> 11 CDC Social Vulnerability Index                                       src_cdc…
#> 12 United States county health rankings                                 src_us_…
# and how to use the accessor programmatically
get(res[1,]$accessor)()
#> INFO  [15:27:47.552] Starting acr_lung_cancer_screening_data
#> Rows: 3590 Columns: 8
#> ── Column specification ────────────────────────────────────────────────────────
#> Delimiter: ","
#> chr (8): 1 Facility Name, 2 Street Address, 3 city, 4 state, 5 ZIP Code, 6 P...
#> 
#> ℹ Use `spec()` to retrieve the full column specification for this data.
#> ℹ Specify the column types or set `show_col_types = FALSE` to quiet this message.
#> INFO  [15:27:49.868] Completing acr_lung_cancer_screening_data
#> # A tibble: 3,590 × 8
#>    Type                Name  Address State Phone_number Notes latitude longitude
#>    <chr>               <chr> <chr>   <chr> <chr>        <chr> <chr>    <chr>    
#>  1 Lung Cancer Screen… Akro… 1 Akro… OH    330-344-6450 Lung… ""       ""       
#>  2 Lung Cancer Screen… Core… 1 Atki… MI    231-843-2591 LCSR  ""       ""       
#>  3 Lung Cancer Screen… Bass… 1 Atwe… NY    607-547-3663 LCSR  ""       ""       
#>  4 Lung Cancer Screen… Moun… 1 Bay … NJ    973-429-6105 Lung… ""       ""       
#>  5 Lung Cancer Screen… Bost… 1 Bost… MA    617-638-6610 LCSR  ""       ""       
#>  6 Lung Cancer Screen… Virt… 1 Brac… NJ    856-470-9100 Lung… ""       ""       
#>  7 Lung Cancer Screen… Clar… 1 Clar… NJ    973-450-2047 Lung… ""       ""       
#>  8 Lung Cancer Screen… Coop… 1 Coop… NJ    856-342-2723 LCSR  ""       ""       
#>  9 Lung Cancer Screen… NY I… 1 Dela… NY    631-675-3000 Lung… ""       ""       
#> 10 Lung Cancer Screen… Summ… 1 Diam… NJ    908-277-8673 LCSR  ""       ""       
#> # ℹ 3,580 more rows
…
